{
  "__type__": "cc.AnimationClip",
  "_name": "BodyShot",
  "_objFlags": 0,
  "_native": "",
  "_duration": 0.925,
  "sample": 40,
  "speed": 1,
  "wrapMode": 1,
  "curveData": {
    "comps": {
      "cc.Sprite": {
        "spriteFrame": [
          {
            "frame": 0,
            "value": {
              "__uuid__": "75676328-0836-49f1-bc23-58d2ed4516ab"
            }
          },
          {
            "frame": 0.05,
            "value": {
              "__uuid__": "eef8d058-a573-4fe5-959d-c5f47933c471"
            }
          },
          {
            "frame": 0.1,
            "value": {
              "__uuid__": "cf47b79e-5732-47a7-a03b-49a7f94d1ed7"
            }
          },
          {
            "frame": 0.15,
            "value": {
              "__uuid__": "3cdd76bb-0da8-43f5-9bcc-f9757d251573"
            }
          },
          {
            "frame": 0.2,
            "value": {
              "__uuid__": "0a77f2f6-0199-48b5-8a12-134c99817ac1"
            }
          },
          {
            "frame": 0.25,
            "value": {
              "__uuid__": "d3905053-8e24-49f1-8e51-cfa56952f51a"
            }
          },
          {
            "frame": 0.3,
            "value": {
              "__uuid__": "ea267efb-afd2-49c4-ab07-3ee940471212"
            }
          },
          {
            "frame": 0.35,
            "value": {
              "__uuid__": "856befb8-608a-478e-a04a-44eecf520e84"
            }
          },
          {
            "frame": 0.4,
            "value": {
              "__uuid__": "c3238223-c2bd-4921-978e-79a647a1964a"
            }
          },
          {
            "frame": 0.45,
            "value": {
              "__uuid__": "cce5c3bb-cc68-4310-bb23-6002ceb9900a"
            }
          },
          {
            "frame": 0.5,
            "value": {
              "__uuid__": "3f370197-3c2e-4a74-af22-26e5763fde2f"
            }
          },
          {
            "frame": 0.55,
            "value": {
              "__uuid__": "11436a01-bd2a-467a-a1d1-aa368f486508"
            }
          },
          {
            "frame": 0.6,
            "value": {
              "__uuid__": "e8bd26ce-e3d1-432f-8b6f-bf0cbceb0a8f"
            }
          },
          {
            "frame": 0.65,
            "value": {
              "__uuid__": "18cc532b-20c6-4565-a5b9-5e8cf4eed0b3"
            }
          },
          {
            "frame": 0.7,
            "value": {
              "__uuid__": "58faa1a5-c47b-4780-b5bf-5ee5071dd81d"
            }
          },
          {
            "frame": 0.75,
            "value": {
              "__uuid__": "6cf7c8df-ba57-4cc7-895c-a4e635a13a3f"
            }
          },
          {
            "frame": 0.8,
            "value": {
              "__uuid__": "f6b2152e-028f-4e96-838b-6e1e19d073a3"
            }
          },
          {
            "frame": 0.85,
            "value": {
              "__uuid__": "d1bdb344-276c-409f-b7ab-292086c7f7d6"
            }
          },
          {
            "frame": 0.9,
            "value": {
              "__uuid__": "15180602-8333-4398-8c26-cedaeaffcb8c"
            }
          }
        ]
      }
    }
  },
  "events": []
}