{
  "__type__": "cc.AnimationClip",
  "_name": "Critical",
  "_objFlags": 0,
  "_native": "",
  "_duration": 1.225,
  "sample": 40,
  "speed": 1,
  "wrapMode": 1,
  "curveData": {
    "comps": {
      "cc.Sprite": {
        "spriteFrame": [
          {
            "frame": 0,
            "value": {
              "__uuid__": "fd25e0d8-03d9-4cd2-b026-d7d973b089d8"
            }
          },
          {
            "frame": 0.05,
            "value": {
              "__uuid__": "b5b6017b-54c7-4aa5-ace1-36ab78f5d281"
            }
          },
          {
            "frame": 0.1,
            "value": {
              "__uuid__": "a72b9cb3-428a-4b7b-b480-b920370da0ed"
            }
          },
          {
            "frame": 0.15,
            "value": {
              "__uuid__": "6c6bc7fc-279c-4f03-ae43-c0eba4b82695"
            }
          },
          {
            "frame": 0.2,
            "value": {
              "__uuid__": "254700eb-af45-4633-bc1b-a1281aaf2128"
            }
          },
          {
            "frame": 0.25,
            "value": {
              "__uuid__": "5395a2f9-1823-42f6-a579-f99e820b55d4"
            }
          },
          {
            "frame": 0.3,
            "value": {
              "__uuid__": "605cd277-21ba-4158-8806-a1c23479157b"
            }
          },
          {
            "frame": 0.35,
            "value": {
              "__uuid__": "cc4dabfc-3eef-4b21-8bb4-f3ba4c436cae"
            }
          },
          {
            "frame": 0.4,
            "value": {
              "__uuid__": "6b279e64-3841-43e9-9c87-e38b45917319"
            }
          },
          {
            "frame": 0.45,
            "value": {
              "__uuid__": "66cfcc01-0aa9-4b7e-890b-929844872c7a"
            }
          },
          {
            "frame": 0.5,
            "value": {
              "__uuid__": "21eae8b7-0eb6-4788-83f4-2a3d9fb6bbe9"
            }
          },
          {
            "frame": 0.55,
            "value": {
              "__uuid__": "8c8ab100-5394-4205-a4c4-8283ebe79b7e"
            }
          },
          {
            "frame": 0.6,
            "value": {
              "__uuid__": "6a132c53-d318-4216-b6cf-0186ccaeed2b"
            }
          },
          {
            "frame": 0.65,
            "value": {
              "__uuid__": "9036b900-3c82-4af2-85eb-d4046c6129f0"
            }
          },
          {
            "frame": 0.7,
            "value": {
              "__uuid__": "db179652-ac24-4766-97cb-97805838dc1b"
            }
          },
          {
            "frame": 0.75,
            "value": {
              "__uuid__": "681e1703-91bb-49f6-aea2-afeeb78489f2"
            }
          },
          {
            "frame": 0.8,
            "value": {
              "__uuid__": "37a6e04d-e033-49fc-a064-a774726ff4b1"
            }
          },
          {
            "frame": 0.85,
            "value": {
              "__uuid__": "f1087cda-16a4-40ad-b7fc-03c6bccaf963"
            }
          },
          {
            "frame": 0.9,
            "value": {
              "__uuid__": "6df9613e-209d-413b-9f92-a3dd12c24c72"
            }
          },
          {
            "frame": 0.95,
            "value": {
              "__uuid__": "5917b0ae-5e1e-40e7-b76e-afac9226c236"
            }
          },
          {
            "frame": 1,
            "value": {
              "__uuid__": "a17c8a6c-f33c-4d98-8586-f1ed70fc6af4"
            }
          },
          {
            "frame": 1.05,
            "value": {
              "__uuid__": "298502d0-4e30-4c9c-8751-e7f2659f6fbd"
            }
          },
          {
            "frame": 1.1,
            "value": {
              "__uuid__": "4e877c0e-bc16-4e48-90ff-c7e9d884bbac"
            }
          },
          {
            "frame": 1.15,
            "value": {
              "__uuid__": "b9d3756a-dbc4-4749-8e39-df1240ccca9e"
            }
          },
          {
            "frame": 1.2,
            "value": {
              "__uuid__": "2076d7d4-9329-45d7-af11-fdcda20ca39f"
            }
          }
        ]
      }
    }
  },
  "events": []
}